<svg xmlns="http://www.w3.org/2000/svg" width="226.878" height="61.774" viewBox="0 0 226.878 61.774">
    <defs>
        <linearGradient id="linear-gradient" x1=".086" x2="1.212" y1=".5" y2=".5" gradientUnits="objectBoundingBox">
            <stop offset=".001" stop-color="#00c7e0"/>
            <stop offset="1" stop-color="#00ff8d"/>
        </linearGradient>
        <linearGradient id="linear-gradient-2" x1=".029" x2=".909" y1="-.065" y2=".887" gradientUnits="objectBoundingBox">
            <stop offset=".003" stop-color="#1c2938"/>
            <stop offset="1" stop-color="#0062dc"/>
        </linearGradient>
        <linearGradient id="linear-gradient-3" x1=".922" x2=".247" y1="-.596" y2=".985" gradientUnits="objectBoundingBox">
            <stop offset=".003" stop-color="#00c7e0"/>
            <stop offset="1" stop-color="#0062dc"/>
        </linearGradient>
        <style>
            .cls-1{fill:#fff}
        </style>
    </defs>
    <g id="logo" transform="translate(-167.969 -230.086)">
        <g id="Dopple" transform="translate(245.556 236.012)">
            <path id="Path_2878" d="M340.993 244.062h9.346c6.822 0 11.324 4.5 11.324 11.461 0 6.856-4.366 12.04-11.563 12.04h-9.107zm5.082 19.408h3.82c4.5 0 6.515-3.377 6.515-7.947 0-3.854-1.876-7.368-6.481-7.368h-3.854z" class="cls-1" transform="translate(-340.993 -243.721)"/>
            <path id="Path_2879" d="M424.814 255.308c0 6.549-3.923 12.177-11.563 12.177-7.4 0-11.256-5.355-11.256-12.109 0-6.821 4.264-12.074 11.563-12.074 6.89-.002 11.256 4.809 11.256 12.006zm-17.566-.034c0 4.6 2.012 8.084 6.173 8.084 4.537 0 6.14-3.786 6.14-7.982 0-4.468-1.842-7.947-6.208-7.947-4.264 0-6.105 3.271-6.105 7.845z" class="cls-1" transform="translate(-374.641 -243.302)"/>
            <path id="Path_2880" d="M470.375 244.062h9.725c5.014 0 8.391 2.8 8.391 7.265 0 5.116-3.854 7.47-8.493 7.47h-4.537v8.766h-5.082zm5.082 10.676h3.889c2.353 0 4.025-.921 4.025-3.309 0-2.421-1.773-3.342-3.922-3.342h-3.991z" class="cls-1" transform="translate(-412.358 -243.721)"/>
            <path id="Path_2881" d="M526.89 244.062h9.721c5.014 0 8.391 2.8 8.391 7.265 0 5.116-3.854 7.47-8.493 7.47h-4.536v8.766h-5.083zm5.082 10.676h3.888c2.354 0 4.025-.921 4.025-3.309 0-2.421-1.774-3.342-3.923-3.342h-3.99z" class="cls-1" transform="translate(-443.531 -243.721)"/>
            <path id="Path_2882" d="M583.405 244.062h5.082V263.4h11.733l-.58 4.161h-16.235z" class="cls-1" transform="translate(-474.703 -243.721)"/>
            <path id="Path_2883" d="M651.406 257.432h-11.255v5.968h12.415l-.614 4.161h-16.747v-23.5h16.679v4.162h-11.733v5.014h11.256z" class="cls-1" transform="translate(-503.275 -243.721)"/>
        </g>
        <g id="Logo-2">
            <path id="Path_2884" fill="url(#linear-gradient)" d="M220.447 318.858l-8.152-14.12h-35.934s-6.765 0-8.389-6.351a12.169 12.169 0 0 0 1.624 6.351l2.311 4 8.789 15.224a11.138 11.138 0 0 0 9.645 5.568h22.2a12.174 12.174 0 0 0 6.846-2.109c.043-.068 2.985-5.228 1.06-8.563z" transform="translate(0 -37.674)"/>
            <path id="Path_2885" fill="url(#linear-gradient-2)" d="M275.437 256.656l-10.8-18.7a12.163 12.163 0 0 0-3.967-4.154c-.241-.071-6.6-1.9-8.833 1.958l-8.549 14.809 10.551 18.274 8.152 14.12c1.925 3.334-1.017 8.5-1.058 8.567a12.171 12.171 0 0 0 3.7-3.982l1.617-2.8 9.181-15.9a12.182 12.182 0 0 0 .006-12.192z" transform="translate(-41.545 -1.774)"/>
            <path id="Path_2886" fill="url(#linear-gradient-3)" d="M212.546 230.086h-21.6a12.184 12.184 0 0 0-10.551 6.092l-10.8 18.7a12.167 12.167 0 0 0-1.624 5.832c.542 4.476 6.834 6.351 6.834 6.351H191.2l10.551-18.274 8.55-14.809c2.23-3.861 8.592-2.029 8.833-1.958a12.172 12.172 0 0 0-6.588-1.934z" transform="translate(-0.003)"/>
        </g>
        <g id="Text" transform="translate(247.027 272.209)">
            <path id="Path_2887" d="M344.274 337.352v-12.84h8.662v1.515h-6.963V330H352v1.515h-6.026v5.833z" class="cls-1" transform="translate(-344.274 -324.293)"/>
            <path id="Path_2888" d="M375.157 337.352v-12.84h1.7v12.84z" class="cls-1" transform="translate(-361.309 -324.293)"/>
            <path id="Path_2889" d="M391.587 337.352v-12.84h1.743l6.744 10.08v-10.08h1.626v12.84h-1.74l-6.744-10.089v10.089z" class="cls-1" transform="translate(-370.371 -324.293)"/>
            <path id="Path_2890" d="M423.368 337.352l4.931-12.84h1.83l5.255 12.84h-1.935l-1.5-3.889h-5.369l-1.41 3.889zm3.7-5.272h4.353l-1.34-3.556q-.613-1.62-.911-2.662a16.333 16.333 0 0 1-.692 2.452z" class="cls-1" transform="translate(-387.901 -324.293)"/>
            <path id="Path_2891" d="M459.153 337.352v-12.84h1.747l6.744 10.08v-10.08h1.629v12.84h-1.743l-6.744-10.089v10.089z" class="cls-1" transform="translate(-407.639 -324.293)"/>
            <path id="Path_2892" d="M502.637 332.58l1.7.43a5.72 5.72 0 0 1-1.922 3.192 5.3 5.3 0 0 1-3.394 1.1 6.1 6.1 0 0 1-3.376-.845 5.276 5.276 0 0 1-1.979-2.448 8.735 8.735 0 0 1-.679-3.442 7.565 7.565 0 0 1 .766-3.5 5.252 5.252 0 0 1 2.181-2.268 6.372 6.372 0 0 1 3.113-.775 5.264 5.264 0 0 1 3.24.981 5.094 5.094 0 0 1 1.831 2.759l-1.673.394a3.97 3.97 0 0 0-1.3-2.041 3.454 3.454 0 0 0-2.137-.639 4.152 4.152 0 0 0-2.474.709 3.746 3.746 0 0 0-1.4 1.9 7.669 7.669 0 0 0-.4 2.465 7.834 7.834 0 0 0 .477 2.86 3.555 3.555 0 0 0 1.485 1.826 4.164 4.164 0 0 0 2.181.6 3.656 3.656 0 0 0 2.417-.823 4.212 4.212 0 0 0 1.343-2.435z" class="cls-1" transform="translate(-426.3 -324.023)"/>
            <path id="Path_2893" d="M529.044 337.352v-12.84h9.284v1.515h-7.585v3.932h7.1v1.507h-7.1v4.37h7.882v1.515z" class="cls-1" transform="translate(-446.19 -324.293)"/>
        </g>
    </g>
</svg>
