<svg xmlns="http://www.w3.org/2000/svg" width="70" height="70.001" viewBox="0 0 70 70.001">
    <defs>
        <linearGradient id="linear-gradient" x1=".086" x2="1.212" y1=".5" y2=".5" gradientUnits="objectBoundingBox">
            <stop offset=".001" stop-color="#00c7e0"/>
            <stop offset="1" stop-color="#00ff8d"/>
        </linearGradient>
        <linearGradient id="linear-gradient-2" x1=".029" x2=".909" y1="-.065" y2=".887" gradientUnits="objectBoundingBox">
            <stop offset=".003" stop-color="#1c2938"/>
            <stop offset="1" stop-color="#0062dc"/>
        </linearGradient>
        <linearGradient id="linear-gradient-3" x1=".922" x2=".247" y1="-.596" y2=".985" gradientUnits="objectBoundingBox">
            <stop offset=".003" stop-color="#00c7e0"/>
            <stop offset="1" stop-color="#0062dc"/>
        </linearGradient>
        <style>
            .cls-1{fill:none}
        </style>
    </defs>
    <g id="dop-token" transform="translate(1.331 4.971)">
        <path id="bg" d="M0 0H70V70H0z" class="cls-1" transform="translate(-1.331 -4.97)"/>
        <g id="icon" transform="translate(-0.804 -4.642)">
            <g id="Ellipse_20" fill="#fff" stroke="#e5e7eb" transform="translate(-0.527 -0.329)">
                <circle cx="35" cy="35" r="35" stroke="none"/>
                <circle cx="35" cy="35" r="34.5" class="cls-1"/>
            </g>
            <g id="icon-2" transform="translate(12.809 15.124)">
                <path id="Path_3282" fill="url(#linear-gradient)" d="M162.2 279.566l-5.283-9.151h-23.291s-4.384 0-5.437-4.116a7.888 7.888 0 0 0 1.052 4.116l1.5 2.594 5.7 9.866a7.218 7.218 0 0 0 6.251 3.609h14.388a7.889 7.889 0 0 0 4.437-1.367c.021-.046 1.928-3.39.683-5.551z" transform="translate(-128.188 -246.45)"/>
                <path id="Path_3283" fill="url(#linear-gradient-2)" d="M215.917 223.629l-7-12.121a7.885 7.885 0 0 0-2.571-2.692c-.156-.046-4.28-1.233-5.725 1.269l-5.541 9.6 6.838 11.843 5.283 9.151c1.248 2.161-.659 5.505-.686 5.552a7.885 7.885 0 0 0 2.4-2.581l1.048-1.816 5.95-10.306a7.894 7.894 0 0 0 .004-7.899z" transform="translate(-173.194 -207.56)"/>
                <path id="Path_3284" fill="url(#linear-gradient-3)" d="M157.078 205.638h-14a7.9 7.9 0 0 0-6.838 3.948l-7 12.121a7.888 7.888 0 0 0-1.052 3.78c.351 2.9 4.429 4.116 4.429 4.116h10.62l6.838-11.843 5.541-9.6c1.445-2.5 5.568-1.315 5.725-1.269a7.89 7.89 0 0 0-4.263-1.253z" transform="translate(-128.191 -205.638)"/>
            </g>
        </g>
    </g>
</svg>
