<svg xmlns="http://www.w3.org/2000/svg" width="37.365" height="32.876" viewBox="0 0 37.365 32.876">
    <defs>
        <linearGradient id="kxmwwlldfa" x1=".039" x2="0" y1=".954" gradientUnits="objectBoundingBox">
            <stop offset=".004" stop-color="#f1cccd"/>
            <stop offset="1" stop-color="#faeeee"/>
        </linearGradient>
        <linearGradient id="7q1vvl12nb" x1="1" x2="0" y1=".5" y2=".5" gradientUnits="objectBoundingBox">
            <stop offset="0" stop-color="#61c9f7"/>
            <stop offset="1" stop-color="#3ab2e6"/>
        </linearGradient>
    </defs>
    <g>
        <g transform="translate(-11.676 -22.497) translate(11.676 22.497)">
            <path fill="url(#kxmwwlldfa)" d="M214.244 222.559a2.669 2.669 0 0 0-2.669-2.669h-9.786v-6.116c0-1.664 0-4.981-4.365-5.4a.89.89 0 0 0-.973.887v6.039a.89.89 0 0 1-.132.466l-2.537 4.123h.111l-5.449 3.559-.444 6.32.445 7.915a3.559 3.559 0 0 0 3.555 3.558h17.8a2.669 2.669 0 0 0 0-5.338h.89a2.669 2.669 0 1 0 0-5.338h.89a2.669 2.669 0 1 0 0-5.338 2.669 2.669 0 0 0 2.669-2.669z" transform="translate(-176.879 -208.365)"/>
            <rect width="11.565" height="21.351" fill="url(#7q1vvl12nb)" rx="2" transform="translate(0 11.525)"/>
            <circle cx="1.334" cy="1.334" r="1.334" fill="#fff" transform="translate(4.671 28.094)"/>
        </g>
    </g>
</svg>
