<svg xmlns="http://www.w3.org/2000/svg" width="147.787" height="104.181" viewBox="0 0 147.787 104.181">
    <defs>
        <linearGradient id="linear-gradient" x1=".5" x2=".5" y2="1" gradientUnits="objectBoundingBox">
            <stop offset="0" stop-color="#00c7e0"/>
            <stop offset="1" stop-color="#0062dc"/>
        </linearGradient>
        <linearGradient id="linear-gradient-2" x1=".086" x2="1.212" y1=".5" y2=".5" gradientUnits="objectBoundingBox">
            <stop offset=".001" stop-color="#00c7e0"/>
            <stop offset="1" stop-color="#00ff8d"/>
        </linearGradient>
        <linearGradient id="linear-gradient-3" x1=".029" x2=".909" y1="-.065" y2=".887" gradientUnits="objectBoundingBox">
            <stop offset=".003" stop-color="#1c2938"/>
            <stop offset="1" stop-color="#0062dc"/>
        </linearGradient>
        <linearGradient id="linear-gradient-4" x1=".922" x2=".247" y1="-.596" y2=".985" gradientUnits="objectBoundingBox">
            <stop offset=".003" stop-color="#00c7e0"/>
            <stop offset="1" stop-color="#0062dc"/>
        </linearGradient>
        <filter id="Ellipse_20" width="71.095" height="71.095" x="76.692" y="0" filterUnits="userSpaceOnUse">
            <feOffset dy="3"/>
            <feGaussianBlur result="blur" stdDeviation="2.5"/>
            <feFlood flood-opacity=".102"/>
            <feComposite in2="blur" operator="in"/>
            <feComposite in="SourceGraphic"/>
        </filter>
        <style>
            .cls-2{fill:#fff}
        </style>
    </defs>
    <g id="bank-account" transform="translate(-24 -36.925)">
        <g id="Group_22" transform="translate(24 62.703)">
            <path id="Path_339" fill="url(#linear-gradient)" d="M130.456 174.4h-95.25c-6.189 0-11.206-4.384-11.206-9.8v-63.7c0-2.706 2.508-4.9 5.6-4.9h117.665c-3.095 0-5.6 2.194-5.6 4.9v63.7c-.003 5.416-5.02 9.8-11.209 9.8z" transform="translate(-24 -96)"/>
            <path id="Path_343" d="M98.141 145.022a1.794 1.794 0 0 0 1.794-1.794v-.614a5.969 5.969 0 0 0-5.962-5.962h-1.212v-2.192a1.793 1.793 0 0 0-3.587 0v2.192h-1.212a5.962 5.962 0 0 0-1.886 11.619l8.647 2.882a2.376 2.376 0 0 1-.751 4.629h-6.01a2.378 2.378 0 0 1-2.375-2.376v-.614a1.794 1.794 0 0 0-3.587 0v.614a5.969 5.969 0 0 0 5.962 5.962h1.212v2.192a1.793 1.793 0 1 0 3.587 0v-2.19h1.212a5.962 5.962 0 0 0 1.886-11.619l-8.647-2.882a2.376 2.376 0 0 1 .751-4.629h6.01a2.378 2.378 0 0 1 2.375 2.375v.614a1.794 1.794 0 0 0 1.793 1.793z" class="cls-2" transform="translate(-65.117 -121.06)"/>
        </g>
        <g id="dopple-icon" transform="translate(108.192 41.425)">
            <g filter="url(#Ellipse_20)" transform="matrix(1, 0, 0, 1, -84.19, -4.5)">
                <circle id="Ellipse_20-2" cx="28.047" cy="28.047" r="28.047" class="cls-2" transform="translate(84.19 4.5)"/>
            </g>
            <g id="logo_wallet" transform="translate(-156.969 -217.279)">
                <path id="Path_2884" fill="url(#linear-gradient-2)" d="M193.862 308.488l-4.022-6.967h-17.73a4.346 4.346 0 0 1-4.139-3.134 6 6 0 0 0 .8 3.134l1.14 1.975 4.337 7.512a5.5 5.5 0 0 0 4.759 2.747h10.954a6.007 6.007 0 0 0 3.378-1.041c.021-.035 1.473-2.581.523-4.226z" transform="translate(0 -53.189)"/>
                <path id="Path_2885" fill="url(#linear-gradient-3)" d="M259.151 244.825l-5.328-9.229a6 6 0 0 0-1.957-2.049c-.119-.035-3.258-.939-4.358.966l-4.218 7.307 5.206 9.017 4.022 6.967c.95 1.645-.5 4.192-.522 4.227a6.005 6.005 0 0 0 1.828-1.965l.8-1.382 4.53-7.846a6.01 6.01 0 0 0-.003-6.013z" transform="translate(-58.655 -2.505)"/>
                <path id="Path_2886" fill="url(#linear-gradient-4)" d="M189.967 230.086H179.31a6.011 6.011 0 0 0-5.206 3.006l-5.328 9.229a6 6 0 0 0-.8 2.877c.268 2.208 3.372 3.134 3.372 3.134h8.086l5.206-9.017 4.218-7.307c1.1-1.9 4.239-1 4.358-.966a6.006 6.006 0 0 0-3.249-.956z" transform="translate(-0.005)"/>
            </g>
        </g>
    </g>
</svg>
