<svg xmlns="http://www.w3.org/2000/svg" width="107" height="64" viewBox="0 0 107 64">
    <defs>
        <style>
            .cls-2{fill:#fff}
        </style>
    </defs>
    <g id="btcb-renbtc" transform="translate(-1049.508 -636.136)">
        <g id="renbtc" transform="translate(1092.495 636.108)">
            <path id="Path_2858" fill="#808285" d="M63.055 39.772A31.992 31.992 0 1 1 39.753.987a31.989 31.989 0 0 1 23.3 38.785z"/>
            <path id="Path_2859" d="M516.116 364.143c.614-4.107-2.514-6.315-6.79-7.788l1.389-5.563-3.388-.844-1.353 5.417c-.89-.222-1.8-.432-2.712-.638l1.358-5.453-3.384-.844-1.385 5.561-6.831-1.692-.9 3.618s2.513.576 2.46.612a1.8 1.8 0 0 1 1.578 1.97l-3.8 15.241a1.231 1.231 0 0 1-1.552.8c.034.049-2.462-.617-2.462-.617l-1.682 3.883 6.821 1.722-1.4 5.628 3.383.844 1.389-5.568c.926.251 1.821.482 2.7.7l-1.383 5.542 3.387.844 1.4-5.617c5.776 1.093 10.119.652 11.945-4.568 1.473-4.205-.072-6.631-3.111-8.214 2.213-.512 3.88-1.967 4.325-4.975M508.375 375c-1.049 4.205-8.128 1.933-10.425 1.362l1.86-7.456c2.3.573 9.657 1.707 8.567 6.093m1.049-10.911c-.955 3.827-6.849 1.883-8.762 1.406l1.684-6.764c1.914.478 8.072 1.367 7.076 5.358" class="cls-2" transform="translate(-470.566 -336.57)"/>
        </g>
        <g id="btcb" transform="translate(1049.495 636.108)">
            <path id="Path_2858-2" fill="#f7931a" d="M63.055 39.772A31.992 31.992 0 1 1 39.753.987a31.989 31.989 0 0 1 23.3 38.785z"/>
            <path id="Path_2859-2" d="M516.116 364.143c.614-4.107-2.514-6.315-6.79-7.788l1.389-5.563-3.388-.844-1.353 5.417c-.89-.222-1.8-.432-2.712-.638l1.358-5.453-3.384-.844-1.385 5.561-6.831-1.692-.9 3.618s2.513.576 2.46.612a1.8 1.8 0 0 1 1.578 1.97l-3.8 15.241a1.231 1.231 0 0 1-1.552.8c.034.049-2.462-.617-2.462-.617l-1.682 3.883 6.821 1.722-1.4 5.628 3.383.844 1.389-5.568c.926.251 1.821.482 2.7.7l-1.383 5.542 3.387.844 1.4-5.617c5.776 1.093 10.119.652 11.945-4.568 1.473-4.205-.072-6.631-3.111-8.214 2.213-.512 3.88-1.967 4.325-4.975M508.375 375c-1.049 4.205-8.128 1.933-10.425 1.362l1.86-7.456c2.3.573 9.657 1.707 8.567 6.093m1.049-10.911c-.955 3.827-6.849 1.883-8.762 1.406l1.684-6.764c1.914.478 8.072 1.367 7.076 5.358" class="cls-2" transform="translate(-470.566 -336.57)"/>
        </g>
    </g>
</svg>
