<svg xmlns="http://www.w3.org/2000/svg" width="30" height="30" viewBox="0 0 30 30">
    <defs>
        <style>
            .cls-2{fill:#fefefe}
        </style>
    </defs>
    <g id="coingecko-icon" transform="translate(-62.315 -649.119)">
        <circle id="Ellipse_60" cx="15" cy="15" r="15" fill="#8dc448" transform="translate(62.315 649.119)"/>
        <circle id="Ellipse_61" cx="2.73" cy="2.73" r="2.73" class="cls-2" transform="rotate(-45 833.268 244.033)"/>
        <circle id="Ellipse_62" cx=".582" cy=".582" r=".582" class="cls-2" transform="rotate(-13.34 2885.467 -27.645)"/>
        <g id="Group_102" transform="translate(63.42 650.224)">
            <path id="Path_2851" fill="#f9e78d" d="M88.837 661.746a13.9 13.9 0 0 0-11.453 21.763 14.724 14.724 0 0 0 1.516-5.856c.323-3.168.1-6.614 3.4-8.468a8.483 8.483 0 0 1 4.643-1.213 13.956 13.956 0 0 1 1.775.25 4.425 4.425 0 0 1 2.569-.109 2.326 2.326 0 0 1 1.513 1.377q.522.2 1.04.407c1.673.664 3.884 1.155 5.272 2.359a2.877 2.877 0 0 1 .952 1.679 3.218 3.218 0 0 1-.986 2.288c-6.838 3.936-.013.01 0 0-2.5 3.169-8.723 7.8-7.647 13.069a13.9 13.9 0 0 0-2.6-27.547z" transform="translate(-74.942 -661.746)"/>
        </g>
        <path id="Path_2852" d="M250.587 684.379c-.087 0-.075-.107-.086-.175-.118-.747-.278-1.485-.459-2.219a19.571 19.571 0 0 0-.571-1.922 22.885 22.885 0 0 0-1.026-2.48A19.938 19.938 0 0 0 246.9 675a7.556 7.556 0 0 0-2.094-2.054 10.443 10.443 0 0 0-1.846-.894c-.414-.163-.823-.339-1.242-.488-.46-.164-.92-.327-1.391-.461-.511-.146-1.028-.27-1.546-.384-.28-.061-.563-.113-.845-.167-.046-.009-.094-.013-.093-.071s.056-.045.091-.052a5.522 5.522 0 0 1 1.225-.109 6.969 6.969 0 0 1 1.585.157 7.609 7.609 0 0 1 2.9 1.176c.48.33.935.694 1.381 1.069s.886.726 1.318 1.1a15.627 15.627 0 0 1 1.818 1.794 12.216 12.216 0 0 1 1.576 2.523 9.836 9.836 0 0 1 .614 1.678 14.014 14.014 0 0 1 .344 1.765c.027.188.028.38.038.571.011.215.028.43.024.645-.008.469-.041.938-.092 1.4-.007.073-.015.181-.078.181z" class="cls-2" transform="translate(-160.241 -19.346)"/>
        <circle id="Ellipse_63" cx="1.898" cy="1.898" r="1.898" fill="#58595b" transform="translate(73.462 658.785)"/>
        <path id="Path_2853" d="M246.879 827.536c-6.856 3.947-10.039 1.527-10.039 1.527 3.482 3.482 10.026-1.517 10.039-1.527" class="cls-2" transform="translate(-159.311 -162.849)"/>
    </g>
</svg>
