<svg xmlns="http://www.w3.org/2000/svg" width="31.021" height="31.021" viewBox="0 0 31.021 31.021">
    <path fill="none" stroke="#fff" stroke-linecap="round" stroke-linejoin="round" stroke-width="3px" d="M32.577 19.772A14.04 14.04 0 1 1 17.305 4.5a10.92 10.92 0 0 0 15.272 15.272z" transform="translate(-3.056 -3)"/>
</svg>
