<svg xmlns="http://www.w3.org/2000/svg" width="70" height="70.001" viewBox="0 0 70 70.001">
    <defs>
        <linearGradient id="linear-gradient" x1=".5" x2=".5" y1=".988" y2="-.002" gradientUnits="objectBoundingBox">
            <stop offset=".001" stop-color="#00c7e0"/>
            <stop offset="1" stop-color="#00ff8d"/>
        </linearGradient>
        <style>
            .cls-3{fill:#fff}
        </style>
    </defs>
    <g id="dolly-token" transform="translate(1.331 4.972)">
        <path id="bg" fill="none" d="M0 0H70V70H0z" transform="translate(-1.331 -4.97)"/>
        <g id="DOLLY" transform="translate(-161.884 -239.614)">
            <circle id="Ellipse_75" cx="35" cy="35" r="35" fill="url(#linear-gradient)" transform="translate(160.553 234.643)"/>
            <path id="Path_2900" d="M206.747 284.115c-.9-5.2-2.611-7.229-3.881-9.946a7 7 0 0 0 3.65.03c.957-.309-.68-2.141-2.1-2.61a6.512 6.512 0 0 0-2.566-.249c-.123-.489-.234-1.006-.322-1.578-.333-2.179.137-4.614 2.626-5.034 1.545-.261 3.007 1.436 4.362 2a9.258 9.258 0 0 0 9.037-.726c.886-.629 1.8-1.471 2.979-1.273 2.49.419 2.959 2.855 2.626 5.034-.089.579-.2 1.1-.326 1.6a6.768 6.768 0 0 0-2.8.232c-1.416.469-3.053 2.3-2.1 2.61a6.572 6.572 0 0 0 3.946-.157c-1.275 2.781-3.021 4.8-3.939 10.073a31.628 31.628 0 0 1-.885 3.9c-.882.272-1.845.808-3.095.156-.992-.518-.689-1.723-.026-2.381.392-.39.956-.606 1.344-1a5.39 5.39 0 0 0 .69-1.167c-.441-.132-1.068-.518-1.291-.354a3.579 3.579 0 0 1-4.676-.015c-.219-.158-.846.247-1.285.391a4.023 4.023 0 0 0 .572 1.115c.608.6 1.465 1 1.908 1.689a1.908 1.908 0 0 1-.193 1.766 5.54 5.54 0 0 1-3.265.123 29.043 29.043 0 0 1-.99-4.229z" class="cls-3" transform="translate(-18.17 -13.356)"/>
            <path id="Path_2901" d="M217.043 310.94c0 .008-.011.014-.016.022a3.542 3.542 0 0 1-3.21-2.017c.86-.113 2.21-.96 4.031-.98 1.19-.013 2.661.824 4.068.913a3.454 3.454 0 0 1-3.023 2.056z" class="cls-3" transform="translate(-23.671 -32.585)"/>
            <path id="Path_2902" fill="#1a4777" d="M236.018 278.176c-2.287.491-7.267-2.807-8.447-5.8-1.341-3.405-3.27-5.4-5.081-7.757a1.07 1.07 0 0 1 .276-1.7 9.049 9.049 0 0 0 3.975-8.263c-1.667-1-4.488-.233-6.638.623-.216-2.532-4.4-2.965-4.4-2.965-4.579-4.906-8.818-3.225-8.818-3.225a9.741 9.741 0 0 0-8.3 1.287c-.046.024-.086.062-.13.089-5.2.206-7.206 3.141-7.875 4.558a2.8 2.8 0 0 0-.443.854 12.252 12.252 0 0 0-7.346-.722c-1.257 6.287 6.417 9.408 6.417 9.408-2.771 10.448.882 10.788-.326 16.854-.695 3.486.933 7.161 1.055 9.658.206 4.214-.859 11.247-.658 15.9a35.008 35.008 0 0 0 51.056-29.416 31.331 31.331 0 0 0-4.317.617zm-52.187-21.986a20.825 20.825 0 0 1 5.539 4.3c1.861 2.346-4.27 3.338-5.539-4.3zm21.21 28.409l-1.851.006c0 .008-.011.014-.016.022a3.542 3.542 0 0 1-3.21-2.017c.86-.113 2.21-.959 4.031-.98 1.189-.013 2.661.824 4.068.913a3.454 3.454 0 0 1-3.022 2.057zm9.77-21.945c-.089.579-.2 1.1-.326 1.6a6.767 6.767 0 0 0-2.8.232c-1.416.469-3.053 2.3-2.1 2.61a6.572 6.572 0 0 0 3.946-.157c-1.275 2.781-3.021 4.8-3.939 10.073a31.633 31.633 0 0 1-.885 3.9c-.882.272-1.845.808-3.095.156-.992-.518-.689-1.723-.026-2.381.392-.389.956-.606 1.344-1a5.389 5.389 0 0 0 .69-1.167c-.441-.132-1.068-.518-1.291-.354a3.579 3.579 0 0 1-4.684-.014c-.219-.158-.846.247-1.285.391a4.023 4.023 0 0 0 .572 1.115c.608.6 1.465 1 1.908 1.689a1.908 1.908 0 0 1-.193 1.766 5.54 5.54 0 0 1-3.265.123 29.041 29.041 0 0 1-.994-4.229c-.9-5.2-2.611-7.229-3.881-9.946a7 7 0 0 0 3.65.03c.957-.309-.68-2.141-2.1-2.61a6.514 6.514 0 0 0-2.566-.249c-.123-.489-.234-1.006-.322-1.578-.333-2.179.137-4.614 2.626-5.034 1.545-.261 3.007 1.436 4.362 2a9.258 9.258 0 0 0 9.037-.726c.886-.629 1.8-1.471 2.979-1.273 2.502.419 2.971 2.854 2.638 5.033zm5.618-2.627a20.82 20.82 0 0 1 5.3-4.587c-.855 7.694-7.029 7.033-5.3 4.586z" transform="translate(-9.818 -6.249)"/>
        </g>
    </g>
</svg>
