<svg xmlns="http://www.w3.org/2000/svg" width="110" height="70" viewBox="0 0 110 70">
    <defs>
        <linearGradient id="linear-gradient" x1=".086" x2="1.212" y1=".5" y2=".5" gradientUnits="objectBoundingBox">
            <stop offset=".001" stop-color="#00c7e0"/>
            <stop offset="1" stop-color="#00ff8d"/>
        </linearGradient>
        <linearGradient id="linear-gradient-2" x1=".029" x2=".909" y1="-.065" y2=".887" gradientUnits="objectBoundingBox">
            <stop offset=".003" stop-color="#1c2938"/>
            <stop offset="1" stop-color="#0062dc"/>
        </linearGradient>
        <linearGradient id="linear-gradient-3" x1=".922" x2=".247" y1="-.596" y2=".985" gradientUnits="objectBoundingBox">
            <stop offset=".003" stop-color="#00c7e0"/>
            <stop offset="1" stop-color="#0062dc"/>
        </linearGradient>
        <style>
            .cls-1{fill:none}
        </style>
    </defs>
    <g id="dop-usdt" transform="translate(0.599 -1.569)">
        <path id="bg" d="M0 0H110V70H0z" class="cls-1" transform="translate(-0.599 1.569)"/>
        <g id="USDT" transform="translate(49.4 6.568)">
            <circle id="Ellipse_100" cx="30" cy="30" r="30" fill="#50af95" transform="translate(0.001)"/>
            <path id="Path_3289" fill="#fff" fill-rule="evenodd" d="M24.06 36.682c-.194.015-1.2.075-3.43.075-1.781 0-3.039-.053-3.482-.075-6.866-.3-12-1.5-12-2.93s5.127-2.625 12-2.932v4.672c.449.033 1.735.108 3.513.108 2.133 0 3.2-.089 3.393-.107v-4.67c6.854.306 11.969 1.5 11.969 2.93s-5.114 2.625-11.969 2.928zm0-6.342v-4.18h9.563v-6.375H7.583v6.375h9.562v4.178c-7.772.357-13.62 1.9-13.62 3.742s5.845 3.383 13.62 3.743v13.394h6.912v-13.4c7.756-.357 13.594-1.895 13.594-3.739s-5.831-3.378-13.594-3.74zm0 0z" transform="translate(9.412 -5.502)"/>
        </g>
        <g id="DOP" transform="translate(-0.599 6.873)">
            <g id="Ellipse_20" fill="#fff" stroke="#e5e7eb" transform="translate(0 -0.305)">
                <circle cx="30" cy="30" r="30" stroke="none"/>
                <circle cx="30" cy="30" r="29.5" class="cls-1"/>
            </g>
            <path id="bg-2" d="M0 0H34V35H0z" class="cls-1" transform="translate(13 12.695)"/>
            <g id="icon" transform="translate(12.673 13.825)">
                <path id="Path_3282" fill="url(#linear-gradient)" d="M155.036 276.772l-4.171-7.224h-18.384s-3.461 0-4.292-3.249a6.227 6.227 0 0 0 .831 3.249l1.18 2.052 4.5 7.789a5.7 5.7 0 0 0 4.935 2.849h11.358a6.228 6.228 0 0 0 3.5-1.079c.023-.041 1.528-2.681.543-4.387z" transform="translate(-128.188 -250.63)"/>
                <path id="Path_3283" fill="url(#linear-gradient-2)" d="M211.53 220.442l-5.525-9.569a6.225 6.225 0 0 0-2.03-2.125c-.123-.036-3.379-.974-4.519 1l-4.374 7.576 5.4 9.349 4.171 7.224c.985 1.706-.52 4.346-.541 4.383a6.224 6.224 0 0 0 1.9-2.038l.828-1.433 4.7-8.136a6.232 6.232 0 0 0-.01-6.231z" transform="translate(-177.803 -207.756)"/>
                <path id="Path_3284" fill="url(#linear-gradient-3)" d="M151 205.638h-11.05a6.233 6.233 0 0 0-5.4 3.117l-5.525 9.569a6.227 6.227 0 0 0-.831 2.984c.277 2.29 3.5 3.249 3.5 3.249h8.384l5.4-9.35 4.374-7.576c1.14-1.975 4.4-1.038 4.519-1a6.229 6.229 0 0 0-3.371-.993z" transform="translate(-128.192 -205.638)"/>
            </g>
        </g>
    </g>
</svg>
