<svg xmlns="http://www.w3.org/2000/svg" id="new-label" width="118.426" height="118.441" viewBox="0 0 118.426 118.441">
    <defs>
        <style>
            .cls-1{fill:#309bc9}
        </style>
    </defs>
    <g id="Group_7">
        <path id="Rectangle_1044" d="M0 0H13.422V38.067H0z" class="cls-1" transform="translate(0 80.374)"/>
        <path id="Rectangle_1045" d="M0 0H38.067V13.422H0z" class="cls-1" transform="translate(80.359)"/>
        <path id="Path_322" fill="#3ab2e6" d="M1938.931 277.67l118.426-118.426-.016-.015H2015.3a8.619 8.619 0 0 0-6.095 2.525l-67.75 67.75a8.617 8.617 0 0 0-2.525 6.1z" transform="translate(-1938.931 -159.229)"/>
    </g>
    <text id="Get_now" fill="#fff" font-family="SanFranciscoDisplay-Bold, San Francisco Display" font-size="26px" font-weight="700" transform="rotate(-45 105.003 -6.772)">
        <tspan x="0" y="0">NEW</tspan>
    </text>
</svg>
