<svg xmlns="http://www.w3.org/2000/svg" width="25" height="25" viewBox="0 0 25 25">
    <path fill="#fff" d="M13.062.563a12.5 12.5 0 1 0 12.5 12.5 12.5 12.5 0 0 0-12.5-12.5zm0 5.544a2.117 2.117 0 1 1-2.117 2.117 2.117 2.117 0 0 1 2.117-2.117zm2.823 12.8a.6.6 0 0 1-.6.6h-4.44a.6.6 0 0 1-.6-.6V17.7a.6.6 0 0 1 .6-.6h.6v-3.231h-.6a.6.6 0 0 1-.6-.6v-1.21a.6.6 0 0 1 .6-.6h3.226a.6.6 0 0 1 .6.6v5.04h.6a.6.6 0 0 1 .6.6z" transform="translate(-.563 -.563)"/>
</svg>
