<svg xmlns="http://www.w3.org/2000/svg" width="36.82" height="36.82" viewBox="0 0 36.82 36.82">
    <defs>
        <style>
            .cls-2{fill:none;stroke-linecap:round;stroke-linejoin:round;stroke:#414042;stroke-width:2.5px}
        </style>
    </defs>
    <g id="sun-icon" transform="translate(1.25 1.25)">
        <g id="Path_79" fill="none" stroke="none" stroke-linecap="round" stroke-linejoin="round">
            <path d="M26.1 18.3a7.8 7.8 0 1 1-7.8-7.8 7.8 7.8 0 0 1 7.8 7.8z" transform="translate(-1.14 -1.14)"/>
            <path fill="#414042" d="M18.3 10.5c-4.308 0-7.8 3.492-7.8 7.8s3.492 7.8 7.8 7.8 7.8-3.492 7.8-7.8-3.492-7.8-7.8-7.8m0-2.5c5.68 0 10.3 4.62 10.3 10.3 0 5.68-4.62 10.3-10.3 10.3C12.62 28.6 8 23.98 8 18.3 8 12.62 12.62 8 18.3 8z" transform="translate(-1.14 -1.14)"/>
        </g>
        <path id="Path_80" d="M18 1.5v3.12" class="cls-2" transform="translate(-.84 -1.5)"/>
        <path id="Path_81" d="M18 31.5v3.12" class="cls-2" transform="translate(-.84 -.3)"/>
        <path id="Path_82" d="M6.33 6.33l2.215 2.215" class="cls-2" transform="translate(-1.307 -1.307)"/>
        <path id="Path_83" d="M27.54 27.54l2.215 2.215" class="cls-2" transform="translate(-.459 -.459)"/>
        <path id="Path_84" d="M1.5 18h3.12" class="cls-2" transform="translate(-1.5 -.84)"/>
        <path id="Path_85" d="M31.5 18h3.12" class="cls-2" transform="translate(-.3 -.84)"/>
        <path id="Path_86" d="M6.33 29.755l2.215-2.215" class="cls-2" transform="translate(-1.307 -.459)"/>
        <path id="Path_87" d="M27.54 8.545l2.215-2.215" class="cls-2" transform="translate(-.459 -1.307)"/>
    </g>
</svg>
