<svg xmlns="http://www.w3.org/2000/svg" width="30" height="30" viewBox="0 0 30 30">
  <g id="renbtc" transform="translate(-0.014 -0.028)">
    <path id="Path_2858" data-name="Path 2858" d="M29.564,18.658A15,15,0,1,1,18.641.478a14.995,14.995,0,0,1,10.923,18.18Z" transform="translate(0 0)" fill="#808285"/>
    <path id="Path_2859" data-name="Path 2859" d="M500.467,355.8c.288-1.925-1.178-2.96-3.183-3.651l.651-2.608-1.588-.4-.634,2.539c-.417-.1-.846-.2-1.271-.3l.637-2.556-1.586-.4-.649,2.607-3.2-.793-.422,1.7s1.178.27,1.153.287a.845.845,0,0,1,.74.923l-1.782,7.144a.577.577,0,0,1-.727.376c.016.023-1.154-.289-1.154-.289l-.788,1.82,3.2.807-.657,2.638,1.586.4.651-2.61c.434.117.854.226,1.265.328l-.648,2.6,1.588.4.657-2.633c2.707.512,4.743.306,5.6-2.141a2.786,2.786,0,0,0-1.458-3.85,2.534,2.534,0,0,0,2.027-2.332m-3.627,5.086c-.492,1.971-3.81.906-4.887.638l.872-3.495c1.076.268,4.527.8,4.016,2.856m.492-5.115c-.448,1.794-3.211.883-4.107.659l.789-3.171c.9.224,3.784.641,3.317,2.512" transform="translate(-479.109 -342.856)" fill="#fff"/>
  </g>
</svg>
