<svg xmlns="http://www.w3.org/2000/svg" width="66.841" height="51.987" viewBox="0 0 66.841 51.987">
    <g>
        <g>
            <path fill="#3ab2e6" d="M14.853 73.28L0 88.134l14.853 14.853v-11.14h25.994V84.42H14.853zm51.987-7.427L51.987 51v11.14H25.994v7.427h25.993v11.14z" transform="translate(0 -51) translate(0 51) translate(0 -51)"/>
        </g>
    </g>
</svg>
